…
[1] 9
> head(df)
# A tibble: 6 × 3
  MaterialID Location Quantity
  <chr>      <chr>       <dbl>
1 TMI-43T    MWH-4          34
2 AXCP-78    MWH-1          67
3 LXCV-21    MWH-2          27
4 AXCP-78    MWH-5          65
5 AXCP-78    MWH-4          36
6 TMI-43T    MWH-4          78
> ind = with(df, order(Location,MaterialID,Quantity))
> df_sorted = df[ind,]
> print(df_sorted)
# A tibble: 50 × 3
   MaterialID Location Quantity
   <chr>      <chr>       <dbl>
 1 AXCP-78    MWH-1          67
 2 AXCP-78    MWH-1          75
 3 AXCP-78    MWH-1         109
 4 AXCP-78    MWH-1         145
 5 AXCP-78    MWH-1         152
 6 DDBN-89    MWH-1          34
 7 DDBN-89    MWH-1          39
 8 DDBN-89    MWH-1          57
 9 SDRT-67    MWH-1          34
10 SDRT-67    MWH-1          57
# ℹ 40 more rows
# ℹ Use `print(n = ...)` to see more rows
…
1   57.7
> summarise(group_by(df,Location),MyData = mean(Quantity))
# A tibble: 5 × 2
  Location MyData
  <chr>     <dbl>
1 MWH-1      80.8
2 MWH-2      44.1
3 MWH-3      43.5
4 MWH-4      48.5
5 MWH-5      63.4
> grp1 = group_by(df,Location,MaterialID)
> summarise(grp1,TotalQuantity = sum(Quantity), Nums = n())
`summarise()` has grouped output by 'Location'. You can
override using the `.groups` argument.
# A tibble: 24 × 4
# Groups:   Location [5]
   Location MaterialID TotalQuantity  Nums
   <chr>    <chr>              <dbl> <int>
 1 MWH-1    AXCP-78              548     5
 2 MWH-1    DDBN-89              130     3
 3 MWH-1    SDRT-67               91     2
 4 MWH-1    TMI-43T              120     1
 5 MWH-2    AXCP-78               85     1
 6 MWH-2    DDBN-89               69     1
 7 MWH-2    GCVB-79              156     4
 8 MWH-2    LXCV-21               27     1
 9 MWH-2    SDRT-67               31     1
10 MWH-2    TMI-43T               29     1
# ℹ 14 more rows
# ℹ Use `print(n = ...)` to see more rows
> newdf = summarise(grp1,TotalQuantity = sum(Quantity), Nums = n())
`summarise()` has grouped output by 'Location'. You can
override using the `.groups` argument.
> newdf
# A tibble: 24 × 4
# Groups:   Location [5]
   Location MaterialID TotalQuantity  Nums
   <chr>    <chr>              <dbl> <int>
 1 MWH-1    AXCP-78              548     5
 2 MWH-1    DDBN-89              130     3
 3 MWH-1    SDRT-67               91     2
 4 MWH-1    TMI-43T              120     1
 5 MWH-2    AXCP-78               85     1
 6 MWH-2    DDBN-89               69     1
 7 MWH-2    GCVB-79              156     4
 8 MWH-2    LXCV-21               27     1
 9 MWH-2    SDRT-67               31     1
10 MWH-2    TMI-43T               29     1
# ℹ 14 more rows
# ℹ Use `print(n = ...)` to see more rows
…
 1 India   Cancer           12     94     35
 2 UK      Cancer           95     19     84
 3 US      Cancer           98     19     53
 4 Japan   Cancer           89     52     14
 5 India   Covid            38     19     62
 6 UK      Covid            69     73     35
 7 US      Covid            87     97     35
 8 Japan   Covid            14     12     90
 9 India   Heart Attack     84     10     98
10 UK      Heart Attack     44     17     24
11 US      Heart Attack     34     40     54
12 Japan   Heart Attack     11     43     75
> df1 = gather(df,Year,Cases,c('2019','2020','2021'))
> df1
# A tibble: 36 × 4
   Country Disease      Year  Cases
   <chr>   <chr>        <chr> <dbl>
 1 India   Cancer       2019     12
 2 UK      Cancer       2019     95
 3 US      Cancer       2019     98
 4 Japan   Cancer       2019     89
 5 India   Covid        2019     38
 6 UK      Covid        2019     69
 7 US      Covid        2019     87
 8 Japan   Covid        2019     14
 9 India   Heart Attack 2019     84
10 UK      Heart Attack 2019     44
# ℹ 26 more rows
# ℹ Use `print(n = ...)` to see more rows
…
Error in `spread()`:
Caused by error:
! object 'Diseases' not found
Run `rlang::last_trace()` to see where the error occurred.
> df2
# A tibble: 5 × 3
  Name    EmpID Deptt      
  <chr>   <chr> <chr>      
1 Sudeep  A342  Quality    
2 Ruchika C578  Sales      
3 Deepika J436  Admin      
4 Arjun   A342  Procurement
5 Rishi   R475  Prodn      
> df1
# A tibble: 36 × 4
   Country Disease      Year  Cases
   <chr>   <chr>        <chr> <dbl>
 1 India   Cancer       2019     12
 2 UK      Cancer       2019     95
 3 US      Cancer       2019     98
 4 Japan   Cancer       2019     89
 5 India   Covid        2019     38
 6 UK      Covid        2019     69
 7 US      Covid        2019     87
 8 Japan   Covid        2019     14
 9 India   Heart Attack 2019     84
10 UK      Heart Attack 2019     44
# ℹ 26 more rows
# ℹ Use `print(n = ...)` to see more rows
> df2 = spread(df1,Diseases,Cases)
Error in `spread()`:
Caused by error:
! object 'Diseases' not found
Run `rlang::last_trace()` to see where the error occurred.
> df2 = spread(df1,Disease,Cases)
> df1
# A tibble: 36 × 4
   Country Disease      Year  Cases
   <chr>   <chr>        <chr> <dbl>
 1 India   Cancer       2019     12
 2 UK      Cancer       2019     95
 3 US      Cancer       2019     98
 4 Japan   Cancer       2019     89
 5 India   Covid        2019     38
 6 UK      Covid        2019     69
 7 US      Covid        2019     87
 8 Japan   Covid        2019     14
 9 India   Heart Attack 2019     84
10 UK      Heart Attack 2019     44
# ℹ 26 more rows
# ℹ Use `print(n = ...)` to see more rows
…
